Optimization Daily: Tidymodels in R
…
Initial Volume [indepdenent]

Width [dependent]

This dataset is used just to illustrate the capability that
tidymodels offers for model building and using
recipes to construct a data pipeline.

urchins <- read_csv("https://tidymodels.org/start/models/urchins.csv") %>% 
  setNames(c("food_regime", "initial_volume", "width")) %>% 
  dplyr::mutate(food_regime = factor(food_regime, levels = c("Initial", "Low", "High")))
urchins

# A tibble: 72 x 3
   food_regime initial_volume width
   <fct>                <dbl> <dbl>
 1 Initial                3.5 0.01 
 2 Initial                5   0.02 
 3 Initial                8   0.061
 4 Initial               10   0.051
 5 Initial               13   0.041
 6 Initial               13   0.061
 7 Initial               15   0.041
 8 Initial               15   0.071
 9 Initial               16   0.092
10 Initial               17   0.051
# ... with 62 more rows
# i Use `print(n = ...)` to see more rows
…
          # Independent Variables
          # Numeric/Nominal Flight Info.
          dep_time, origin, dest, air_time, distance, carrier,
          
          # Numeric/Nominal Weather Info.
          temp, dewp, humid, starts_with("wind_"), precip, pressure, visib,
          
          #Dependent Variables
           arr_delay) %>% 
  drop_na() %>% 
  mutate_if(is.character, as.factor)

flight_data

# A tibble: 72,734 x 19
   time_hour           flight date       dep_time origin dest  air_t~1
   <dttm>               <int> <date>        <int> <fct>  <fct>   <dbl>
 1 2013-01-01 05:00:00   1714 2013-01-01      533 LGA    IAH       227
 2 2013-01-01 06:00:00    461 2013-01-01      554 LGA    ATL       116
 3 2013-01-01 06:00:00   5708 2013-01-01      557 LGA    IAD        53
 4 2013-01-01 06:00:00    301 2013-01-01      558 LGA    ORD       138
 5 2013-01-01 06:00:00    707 2013-01-01      559 LGA    DFW       257
 6 2013-01-01 06:00:00    371 2013-01-01      600 LGA    FLL       152
 7 2013-01-01 06:00:00   4650 2013-01-01      600 LGA    ATL       134
 8 2013-01-01 06:00:00   1919 2013-01-01      602 LGA    MSP       170
 9 2013-01-01 06:00:00   4401 2013-01-01      602 LGA    DTW       105
10 2013-01-01 06:00:00   1837 2013-01-01      623 LGA    MIA       153
# ... with 72,724 more rows, 12 more variables: distance <dbl>,
#   carrier <fct>, temp <dbl>, dewp <dbl>, humid <dbl>,
#   wind_dir <dbl>, wind_speed <dbl>, wind_gust <dbl>, precip <dbl>,
#   pressure <dbl>, visib <dbl>, arr_delay <fct>, and abbreviated
#   variable name 1: air_time
# i Use `print(n = ...)` to see more rows, and `colnames()` to see all variable names
…
...
and 122 more lines.

The final model contains the recipe and the model, so we can
extract them out individually, but do not have to.

flights_fit %>% 
  extract_fit_parsnip() %>% # not needed, but useful to know
  tidy()

# A tibble: 164 x 5
   term          estimate std.error statistic   p.value
   <chr>            <dbl>     <dbl>     <dbl>     <dbl>
 1 (Intercept) -22.7      6.76          -3.36 7.85e-  4
 2 dep_time     -0.00213  0.0000380    -56.2  0        
 3 air_time     -0.0425   0.00129      -33.0  3.06e-238
 4 distance      0.0137   0.00346        3.95 7.96e-  5
 5 temp          0.0348   0.00857        4.06 4.98e-  5
 6 dewp         -0.0464   0.00928       -5.00 5.66e-  7
 7 humid         0.00977  0.00505        1.93 5.31e-  2
 8 wind_dir      0.000722 0.000200       3.62 2.96e-  4
 9 wind_speed   -0.0130   0.00546       -2.38 1.72e-  2
10 wind_gust    -0.0128   0.00464       -2.76 5.85e-  3
# ... with 154 more rows
# i Use `print(n = ...)` to see more rows
…
Use a trained workflow to
predict

predict(flights_fit, test_data)

# A tibble: 18,184 x 1
   .pred_class
   <fct>      
 1 on_time    
 2 on_time    
 3 on_time    
 4 on_time    
 5 on_time    
 6 on_time    
 7 on_time    
 8 on_time    
 9 on_time    
10 on_time    
# ... with 18,174 more rows
# i Use `print(n = ...)` to see more rows
…
flights_aug %>% select(arr_delay : .pred_on_time)

# A tibble: 18,184 x 4
   arr_delay .pred_class .pred_late .pred_on_time
   <fct>     <fct>            <dbl>         <dbl>
 1 on_time   on_time         0.0376         0.962
 2 on_time   on_time         0.0296         0.970
 3 on_time   on_time         0.0333         0.967
 4 on_time   on_time         0.0302         0.970
 5 on_time   on_time         0.0177         0.982
 6 on_time   on_time         0.0378         0.962
 7 on_time   on_time         0.0183         0.982
 8 on_time   on_time         0.0350         0.965
 9 on_time   on_time         0.0374         0.963
10 on_time   on_time         0.0559         0.944
# ... with 18,174 more rows
# i Use `print(n = ...)` to see more rows

flights_aug %>% 
  roc_curve(truth = arr_delay, .pred_late)

# A tibble: 18,186 x 3
      .threshold specificity sensitivity
           <dbl>       <dbl>       <dbl>
 1 -Inf            0                   1
 2    0.00000102   0                   1
 3    0.00000282   0.0000656           1
 4    0.000678     0.000131            1
 5    0.000697     0.000197            1
 6    0.00158      0.000262            1
 7    0.00174      0.000328            1
 8    0.00199      0.000393            1
 9    0.00208      0.000459            1
10    0.00223      0.000525            1
# ... with 18,176 more rows
# i Use `print(n = ...)` to see more rows
…
Estimating performance

The yardstick package can be used to measure the
roc_auc() to see how our model performs

rf_training_pred = 
  predict(rf_fit, cell_train) %>% 
  dplyr::bind_cols(predict(rf_fit, cell_train, type="prob")) %>% 
  dplyr::bind_cols(cell_train %>% select(class))
rf_training_pred

# A tibble: 1,514 x 4
   .pred_class .pred_PS .pred_WS class
   <fct>          <dbl>    <dbl> <fct>
 1 PS             0.740  0.260   PS   
 2 PS             0.940  0.0597  PS   
 3 PS             0.929  0.0707  PS   
 4 PS             0.959  0.0406  PS   
 5 PS             0.926  0.0738  PS   
 6 PS             0.681  0.319   PS   
 7 PS             0.991  0.00861 PS   
 8 PS             0.769  0.231   PS   
 9 PS             0.860  0.140   PS   
10 PS             0.751  0.249   PS   
# ... with 1,504 more rows
# i Use `print(n = ...)` to see more rows
…
Decision Tree Model Specification (classification)

Main Arguments:
  cost_complexity = tune()
  tree_depth = tune()

Computational engine: rpart 

tree_grid = grid_regular(cost_complexity(), 
                         tree_depth(),
                         levels = 5)
tree_grid

# A tibble: 25 x 2
   cost_complexity tree_depth
             <dbl>      <int>
 1    0.0000000001          1
 2    0.0000000178          1
 3    0.00000316            1
 4    0.000562              1
 5    0.1                   1
 6    0.0000000001          4
 7    0.0000000178          4
 8    0.00000316            4
 9    0.000562              4
10    0.1                   4
# ... with 15 more rows
# i Use `print(n = ...)` to see more rows
…
tree_res %>% 
  collect_metrics()

# A tibble: 50 x 8
   cost_complexity tree_~1 .metric .esti~2  mean     n std_err .config
             <dbl>   <int> <chr>   <chr>   <dbl> <int>   <dbl> <chr>  
 1    0.0000000001       1 accura~ binary  0.732    10  0.0148 Prepro~
 2    0.0000000001       1 roc_auc binary  0.777    10  0.0107 Prepro~
 3    0.0000000178       1 accura~ binary  0.732    10  0.0148 Prepro~
 4    0.0000000178       1 roc_auc binary  0.777    10  0.0107 Prepro~
 5    0.00000316         1 accura~ binary  0.732    10  0.0148 Prepro~
 6    0.00000316         1 roc_auc binary  0.777    10  0.0107 Prepro~
 7    0.000562           1 accura~ binary  0.732    10  0.0148 Prepro~
 8    0.000562           1 roc_auc binary  0.777    10  0.0107 Prepro~
 9    0.1                1 accura~ binary  0.732    10  0.0148 Prepro~
10    0.1                1 roc_auc binary  0.777    10  0.0107 Prepro~
# ... with 40 more rows, and abbreviated variable names
#   1: tree_depth, 2: .estimator
# i Use `print(n = ...)` to see more rows
…
