GNI Per Capita and Plastic Pollution Analyss in R
…
#Scraping the GNI data set
url <- "https://en.wikipedia.org/wiki/List_of_countries_by_GNI_(nominal)_per_capita"
list_html <-
  read_html(url) %>% #scraping the interested web page
  rvest::html_elements("table.wikitable") %>% # takes the tables we want
  rvest::html_table() 

list_html

[[1]]
# A tibble: 36 x 4
   Rank  Country              `GNI per capita (US$)[1]`  Year
   <chr> <chr>                <chr>                     <int>
 1 —     Bermuda (UK)         116,540                    2021
 2 1     Liechtenstein        116,440                    2009
 3 2     Switzerland          90,360                     2021
 4 3     Norway               84,090                     2021
 5 —     Isle of Man (UK)     83,920                     2019
 6 4     Luxembourg           81,110                     2020
 7 5     Ireland              74,520                     2021
 8 6     United States        70,430                     2021
 9 7     Denmark              68,110                     2021
10 —     Channel Islands (UK) 66,220                     2007
# ... with 26 more rows
# i Use `print(n = ...)` to see more rows

[[2]]
# A tibble: 36 x 4
   Rank  Country                       `GNI per capita (US$)[1]`  Year
   <chr> <chr>                         <chr>                     <int>
 1 30    Malta                         30,560                     2021
 2 31    Spain                         29,740                     2021
 3 32    Slovenia                      28,240                     2021
 4 33    Cyprus                        28,130                     2021
 5 —     Sint Maarten (Netherlands)    27,510                     2018
 6 34    Bahamas                       27,220                     2021
 7 35    Estonia                       25,920                     2021
 8 36    Czech Republic                24,070                     2021
 9 37    Portugal                      23,730                     2021
10 —     Turks and Caicos Islands (UK) 23,600                     2021
# ... with 26 more rows
# i Use `print(n = ...)` to see more rows

[[3]]
# A tibble: 26 x 4
   Rank  Country     `GNI per capita (US$)[1]`  Year
   <chr> <chr>       <chr>                     <int>
 1 59    Costa Rica  12,310                     2021
 2 —     World       12,070                     2021
 3 60    China       11,890                     2021
 4 61    Russia      11,600                     2021
 5 62    Malaysia    10,930                     2021
 6 63    Mauritius   10,860                     2021
 7 64    Bulgaria    10,720                     2021
 8 65    Argentina   10,050                     2021
 9 66    Turkey      9,830                      2021
10 67    Saint Lucia 9,680                      2021
# ... with 16 more rows
# i Use `print(n = ...)` to see more rows

[[4]]
# A tibble: 27 x 4
    Rank Country                `GNI per capita (US$)[1]`  Year
   <int> <chr>                  <chr>                     <int>
 1    84 Belarus                6,950                      2021
 2    85 Botswana               6,940                      2021
 3    86 Bosnia and Herzegovina 6,770                      2021
 4    87 Tuvalu                 6,760                      2021
 5    88 Peru                   6,520                      2021
 6    89 South Africa           6,440                      2021
 7    90 Colombia               6,160                      2021
 8    91 North Macedonia        6,130                      2021
 9    92 Albania                6,110                      2021
10    93 Ecuador                5,930                      2021
# ... with 17 more rows
# i Use `print(n = ...)` to see more rows

[[5]]
# A tibble: 26 x 4
    Rank Country                        GNI per capita (US$)[1~1  Year
   <int> <chr>                          <chr>                    <int>
 1   111 Palestine                      4,220                     2021
 2   112 El Salvador                    4,140                     2021
 3   112 Indonesia                      4,140                     2021
 4   114 Ukraine                        4,120                     2021
 5   115 Federated States of Micronesia 3,880                     2021
 6   116 Samoa                          3,860                     2021
 7   117 Sri Lanka                      3,820                     2021
 8   118 Mongolia                       3,760                     2021
 9   119 Eswatini                       3,680                     2021
10   120 Algeria                        3,660                     2021
# ... with 16 more rows, and abbreviated variable name
#   1: `GNI per capita (US$)[1]`
# i Use `print(n = ...)` to see more rows

[[6]]
# A tibble: 28 x 4
    Rank Country               `GNI per capita (US$)[1]`  Year
   <int> <chr>                 <chr>                     <int>
 1   137 Laos                  2,520                      2021
 2   138 Ivory Coast           2,450                      2021
 3   139 Ghana                 2,360                      2021
 4   140 Solomon Islands       2,300                      2021
 5   141 Sao Tome and Principe 2,280                      2021
 6   142 India                 2,170                      2021
 7   143 Nigeria               2,100                      2021
 8   144 Nicaragua             2,010                      2021
 9   144 Kenya                 2,010                      2021
10   146 Uzbekistan            1,960                      2021
# ... with 18 more rows
# i Use `print(n = ...)` to see more rows
…
  #assigning the gni income levels to the corresponding countries
  purrr::map(1:8, function(x){
    list_html[[x]] %>% 
      dplyr::mutate(gni_status=status[x])
  }) %>% 
  do.call(what=rbind) %>% 
  janitor::clean_names() %>%
  dplyr::mutate(gni_status = forcats::as_factor(gni_status)) %>% 
  dplyr::select(country, 
                gni_metric=gni_per_capita_us_1, # renames
                gni_status) %>% 
  dplyr::mutate(gni_metric = stringr::str_remove(gni_metric,",") %>% as.numeric()) 
df_gni

# A tibble: 206 x 3
   country              gni_metric gni_status
   <chr>                     <dbl> <fct>     
 1 Bermuda (UK)             116540 high      
 2 Liechtenstein            116440 high      
 3 Switzerland               90360 high      
 4 Norway                    84090 high      
 5 Isle of Man (UK)          83920 high      
 6 Luxembourg                81110 high      
 7 Ireland                   74520 high      
 8 United States             70430 high      
 9 Denmark                   68110 high      
10 Channel Islands (UK)      66220 high      
# ... with 196 more rows
# i Use `print(n = ...)` to see more rows
…
#Building and tidying waste dataframe
df_waste <- readr::read_csv("https://raw.githubusercontent.com/mesdi/plastic-pollution/main/plastic-waste-mismanaged.csv")

df_waste =
  df_waste %>%  
  janitor::clean_names() %>% 
  tidyr::drop_na() %>% 
  select(country=entity,
         waste_metric=mismanaged_plastic_waste_metric_tons_year_1)

df_waste

# A tibble: 160 x 2
   country             waste_metric
   <chr>                      <dbl>
 1 Albania                    69833
 2 Algeria                   764578
 3 Angola                    236946
 4 Antigua and Barbuda          627
 5 Argentina                 465808
 6 Australia                   5266
 7 Bahamas                     2212
 8 Bahrain                     1043
 9 Bangladesh               1021990
10 Barbados                     872
# ... with 150 more rows
# i Use `print(n = ...)` to see more rows
…
#Binding waste and gni dataframes by country
df_tidy =
  df_waste %>% 
  dplyr::left_join(df_gni) %>% 
  dplyr::distinct(country, .keep_all = TRUE) %>% # remove duplicate countries
  dplyr::filter(!country == "World") %>% 
  tidyr::drop_na()

df_tidy

# A tibble: 142 x 4
   country             waste_metric gni_metric gni_status  
   <chr>                      <dbl>      <dbl> <fct>       
 1 Albania                    69833       6110 upper_middle
 2 Algeria                   764578       3660 lower_middle
 3 Angola                    236946       1770 lower_middle
 4 Antigua and Barbuda          627      14900 high        
 5 Argentina                 465808      10050 upper_middle
 6 Australia                   5266      56760 high        
 7 Bahamas                     2212      27220 high        
 8 Bahrain                     1043      19930 high        
 9 Bangladesh               1021990       2620 lower_middle
10 Barbados                     872      16720 high        
# ... with 132 more rows
# i Use `print(n = ...)` to see more rows
…
