Recipes in R
…
# Workflow for whole train set
credit_workflow = 
  workflows::workflow() %>% 
  workflows::add_model(lr_mod) %>% 
  workflows::add_recipe(credit_recipe)

# Train on the whole now
credit_fit =
  credit_workflow %>%
  fit(data = credit_train)

tidy(credit_fit)

# A tibble: 23 x 5
   term        estimate std.error statistic   p.value
   <chr>          <dbl>     <dbl>     <dbl>     <dbl>
 1 (Intercept)  1.37       0.0549   25.0    1.12e-137
 2 Seniority    0.678      0.0700    9.69   3.19e- 22
 3 Time         0.00568    0.0588    0.0967 9.23e-  1
 4 Age         -0.122      0.0631   -1.94   5.28e-  2
 5 Expenses    -0.273      0.0580   -4.72   2.41e-  6
 6 Income       0.529      0.0614    8.61   7.11e- 18
 7 Assets       0.356      0.0927    3.85   1.20e-  4
 8 Debt        -0.121      0.0501   -2.42   1.57e-  2
 9 Amount      -0.985      0.0948  -10.4    2.54e- 25
10 Price        0.677      0.0932    7.26   3.80e- 13
# ... with 13 more rows
# i Use `print(n = ...)` to see more rows
…
